animation{
  name = "jumping",
  src_image = "items/double_jump_wings.png",
  frame_delay = 70,
  directions = {
    { x = 0, y = 0, frame_width = 80, frame_height = 64, origin_x = 40, origin_y = 65, num_frames = 7 },
    { x = 0, y = 64, frame_width = 80, frame_height = 64, origin_x = 40, origin_y = 65, num_frames = 7 },
    { x = 0, y = 128, frame_width = 80, frame_height = 64, origin_x = 40, origin_y = 65, num_frames = 7 },
    { x = 0, y = 192, frame_width = 80, frame_height = 64, origin_x = 40, origin_y = 65, num_frames = 7 },
  },
}
